{
    "L1MuESLModule": "develop", 
    "L1MuESwCore": "devKosuke/RestartMsgReporter", 
    "L1MuETTCFanoutModule": "devKosuke/UserCmd", 
    "L1MuESRODModule": "develop-tbed", 
    "L1MuESRODSoftware": "feature-RODFormat", 
    "L1MuEVmeApi": "develop", 
    "OksForTestBed": "develop", 
    "L1MuETTCCtrlModule": "develop"
}